{
  "name": "Tabs",
  "app_id": "",
  "gulpStartupTasks": [
    "sass",
    "watch"
  ],
  "watchPatterns": [
    "www/**/*",
    "!www/lib/**/*",
    "!www/**/*.map"
  ],
  "defaultBrowser": "google-chrome"
}
